<?xml version="1.0" encoding="utf-8"?>
<svg xmlns="http://www.w3.org/2000/svg" xmlns:xlink="http://www.w3.org/1999/xlink" style="margin: auto; background: none; display: block; shape-rendering: auto;" width="264px" height="264px" viewBox="0 0 100 100" preserveAspectRatio="xMidYMid">
<rect x="17.5" y="32" width="15" height="36" fill="#090c14">
  <animate attributeName="y" repeatCount="indefinite" dur="0.8403361344537814s" calcMode="spline" keyTimes="0;0.5;1" values="14;32;32" keySplines="0 0.5 0.5 1;0 0.5 0.5 1" begin="-0.1680672268907563s"></animate>
  <animate attributeName="height" repeatCount="indefinite" dur="0.8403361344537814s" calcMode="spline" keyTimes="0;0.5;1" values="72;36;36" keySplines="0 0.5 0.5 1;0 0.5 0.5 1" begin="-0.1680672268907563s"></animate>
</rect>
<rect x="42.5" y="32" width="15" height="36" fill="#090c14">
  <animate attributeName="y" repeatCount="indefinite" dur="0.8403361344537814s" calcMode="spline" keyTimes="0;0.5;1" values="18.5;32;32" keySplines="0 0.5 0.5 1;0 0.5 0.5 1" begin="-0.08403361344537814s"></animate>
  <animate attributeName="height" repeatCount="indefinite" dur="0.8403361344537814s" calcMode="spline" keyTimes="0;0.5;1" values="63;36;36" keySplines="0 0.5 0.5 1;0 0.5 0.5 1" begin="-0.08403361344537814s"></animate>
</rect>
<rect x="67.5" y="32" width="15" height="36" fill="#090c14">
  <animate attributeName="y" repeatCount="indefinite" dur="0.8403361344537814s" calcMode="spline" keyTimes="0;0.5;1" values="18.5;32;32" keySplines="0 0.5 0.5 1;0 0.5 0.5 1"></animate>
  <animate attributeName="height" repeatCount="indefinite" dur="0.8403361344537814s" calcMode="spline" keyTimes="0;0.5;1" values="63;36;36" keySplines="0 0.5 0.5 1;0 0.5 0.5 1"></animate>
</rect>
<!-- [ldio] generated by https://loading.io/ --></svg>